hw05
…
write_csv(New_data, here::here("hw05", "Data", "EuropeGDP.csv"))

(EuropeGDP<- read_csv(here::here("hw05", "Data", "EuropeGDP.csv")))

## Parsed with column specification:
## cols(
##   country = col_character(),
##   gdpPercap = col_double()
## )

## # A tibble: 30 x 2
##    country                gdpPercap
##    <chr>                      <dbl>
##  1 Albania                    5937.
##  2 Austria                   36126.
##  3 Belgium                   33693.
##  4 Bosnia and Herzegovina     7446.
##  5 Bulgaria                  10681.
##  6 Croatia                   14619.
##  7 Czech Republic            22833.
##  8 Denmark                   35278.
##  9 Finland                   33207.
## 10 France                    30470.
## #  with 20 more rows
…
