hw03
…
##  Attaching packages  tidyverse 1.2.1 

##  ggplot2 3.2.1      purrr   0.3.2
##  tibble  2.1.3      dplyr   0.8.3
##  tidyr   1.0.0      stringr 1.4.0
##  readr   1.3.1      forcats 0.4.0

##  Conflicts  tidyverse_conflicts() 
##  dplyr::filter() masks stats::filter()
##  dplyr::lag()    masks stats::lag()

##Task option 3 - The spread of GDP within the continents. #A tibble Table 1. The spread of GDP within continents. For each country, min, max, mean and the difference between the minimum and maxiumum values has been calculated 

## # A tibble: 142 x 6
## # Groups:   continent [5]
##    continent country                  minGDP maxGDP meanGDP GDPdiff
##    <fct>     <fct>                     <dbl>  <dbl>   <dbl>   <dbl>
##  1 Africa    Algeria                   2449.  6223.   4426.   3774.
##  2 Africa    Angola                    2277.  5523.   3607.   3246.
##  3 Africa    Benin                      949.  1441.   1155.    492.
##  4 Africa    Botswana                   851. 12570.   5032.  11719.
##  5 Africa    Burkina Faso               543.  1217.    844.    674.
##  6 Africa    Burundi                    339.   632.    472.    292.
##  7 Africa    Cameroon                  1173.  2603.   1775.   1430.
##  8 Africa    Central African Republic   706.  1193.    959.    487.
##  9 Africa    Chad                       798.  1704.   1165.    906.
## 10 Africa    Comoros                    986.  1938.   1314.    951.
## #  with 132 more rows
…
#What this figure/table show Table 1 shows the spread of GDP within each continent. In addition to the mean, minimum and maximum values of GDP for each country, the difference between the minimum and maximum GDP has also been calculated. This can be used to identify countries where there is greater economic inequality, i.e.the difference between min and max GDP is greater. Figure 1 shows the spread of GDP within each continent by plotting the means of GDP per country. The most notable feature of this figure is the larger spread of GDP in Asia and Europe compared to Africa and the Americas.

##Task option 5 - How is life expectancy changing over time on different continents #A tibble  Table 2. Life expectancy over time for each country

## # A tibble: 1,704 x 4
##    country     continent lifeExp  year
##    <fct>       <fct>       <dbl> <int>
##  1 Afghanistan Asia         28.8  1952
##  2 Afghanistan Asia         30.3  1957
##  3 Afghanistan Asia         32.0  1962
##  4 Afghanistan Asia         34.0  1967
##  5 Afghanistan Asia         36.1  1972
##  6 Afghanistan Asia         38.4  1977
##  7 Afghanistan Asia         39.9  1982
##  8 Afghanistan Asia         40.8  1987
##  9 Afghanistan Asia         41.7  1992
## 10 Afghanistan Asia         41.8  1997
## #  with 1,694 more rows
…
